﻿POPS = {
	s:STATE_HJYRTSIKKI = {
		region_state:A10 = {
			create_pop = {
				culture = grombari_half_orc
				size = 68579
			}
			create_pop = {
				culture = grombari_orc
				size = 62393
				split_religion = {
					grombari_orc = {
						corinite = 0.5
						old_dookan = 0.5
					}
				}
			}
			create_pop = {
				culture = forest_troll
				size = 12611
			}
		}
	}


	s:STATE_FRIGID_FOREST = {
		region_state:A10 = {
			create_pop = {
				culture = grombari_orc
				size = 313138
				split_religion = {
					grombari_orc = {
						corinite = 0.8
						old_dookan = 0.2
					}
				}
			}
			create_pop = {
				culture = grombari_half_orc
				size = 331006
			}
			create_pop = {
				culture = forest_troll
				size = 37491
			}
		}
	}

	s:STATE_COPPERWOOD = {
		region_state:A10 = {
			create_pop = {
				culture = grombari_half_orc
				size = 354695
			}
			create_pop = {
				culture = grombari_orc
				size = 396702
				split_religion = {
					grombari_orc = {
						corinite = 0.7
						old_dookan = 0.3
					}
				}
			}
			create_pop = {
				culture = mossmouth_ogre
				size = 34344
				split_religion = {
					mossmouth_ogre = {
						corinite = 0.8
						feast_of_the_gods = 0.2
					}
				}
			}
		}
	}

	s:STATE_KHUGSVALE = {
		region_state:A10 = {
			create_pop = {
				culture = grombari_half_orc
				size = 238511
			}
			create_pop = {
				culture = grombari_orc
				size = 229396
			}
			create_pop = {
				culture = black_orc
				size = 42046
				split_religion = {
					black_orc = {
						corinite = 0.2
						old_dookan = 0.8
					}
				}
			}
		}
	}
	s:STATE_LONELY_MOUNTAIN = {
		region_state:A10 = {
			create_pop = {
				culture = lonely_goblin
				size = 89445
			}
			create_pop = {
				culture = cave_troll
				size = 12731
			}
		}
	}
	s:STATE_TANNING_VALLEY = {
		region_state:A10 = {
			create_pop = {
				culture = grombari_half_orc
				size = 307757
			}
			create_pop = {
				culture = grombari_orc
				size = 326463
				split_religion = {
					grombari_orc = {
						corinite = 0.7
						old_dookan = 0.3
					}
				}
			}
			create_pop = {
				culture = black_orc
				size = 47864
				split_religion = {
					black_orc = {
						corinite = 0.5
						old_dookan = 0.5
					}
				}
			}
			create_pop = {
				culture = mossmouth_ogre
				size = 26413
				split_religion = {
					mossmouth_ogre = {
						corinite = 0.9
						feast_of_the_gods = 0.1
					}
				}
			}
		}
	}
	### Holds
	s:STATE_KRAKDHUMVROR = {
		region_state:D02 = {
			create_pop = {
				culture = quartz_dwarf
				size = 2083200 
			}
		}
	} 
	s:STATE_DUR_VAZHATUN = {
		region_state:D03 = {
			create_pop = {
				culture = sapphire_dwarf
				size = 1136000
			}
			create_pop = {
				culture = sapphire_dwarf
				religion = dwarven_pantheon
				size = 177000
			}
		}
	}
	s:STATE_AMLDIHR = {
		region_state:D05 = {
			create_pop = {
				culture = kronium_dwarf
				size = 897000
			}
			create_pop = {
				culture = kronium_dwarf
				religion = dwarven_pantheon
				size = 107000
			}
			create_pop = {
				culture = platinum_dwarf
				size = 108000
			}
			create_pop = {
				culture = platinum_dwarf
				religion = dwarven_pantheon
				size = 15000
			}
		}
	}
	s:STATE_AMLHARAZ = {
		region_state:D05 = {
			create_pop = {
				culture = kronium_dwarf
				size = 814000
			}
			create_pop = {
				culture = kronium_dwarf
				religion = dwarven_pantheon
				size = 51000
			}
			create_pop = {
				culture = platinum_dwarf
				size = 68000
			}
			create_pop = {
				culture = platinum_dwarf
				religion = dwarven_pantheon
				size = 12000
			}
		}	
	}
	s:STATE_HALL_OF_ANCESTORS = {
		region_state:D05 = {
			create_pop = {
				culture = kronium_dwarf
				size = 602000
			}
			create_pop = {
				culture = kronium_dwarf
				religion = dwarven_pantheon
				size = 15000
			}
			create_pop = {
				culture = platinum_dwarf
				size = 92000
			}
		}	
	}
	s:STATE_VERKAL_VAZKRON = {
		region_state:D05 = {
			create_pop = {
				culture = kronium_dwarf
				size = 767000
			}
			create_pop = {
				culture = kronium_dwarf
				religion = dwarven_pantheon
				size = 38000
			}
			create_pop = {
				culture = platinum_dwarf
				size = 155000
			}
			create_pop = {
				culture = platinum_dwarf
				religion = dwarven_pantheon
				size = 22000
			}
		}	
	}
	s:STATE_ORLAZAM_AZ_DIHR = {
		region_state:D05 = {
			create_pop = {
				culture = kronium_dwarf
				size = 886000
			}
			create_pop = {
				culture = kronium_dwarf
				religion = dwarven_pantheon
				size = 53000
			}
		}	
	}
	s:STATE_KHUGDIHR = {
		region_state:D08 = {
			create_pop = {
				culture = agate_dwarf
				size = 1560000
			}
			create_pop = {
				culture = agate_dwarf
				religion = ancestor_worship
				size = 448000
			}
			create_pop = {
				culture = iron_dwarf
				religion = regent_court
				size = 464000
			}
			create_pop = {
				culture = iron_dwarf
				religion = ancestor_worship
				size = 51000
			}
			create_pop = {
				culture = silver_dwarf
				size = 403000
			}
			create_pop = {
				culture = ruby_dwarf
				religion = dwarven_pantheon
				size = 15000
			}
			create_pop = {
				culture = costine
				religion = regent_court
				size = 16000
			}
			create_pop = {
				culture = platinum_dwarf
				religion = ancestor_worship
				size = 59000
			}
			create_pop = {
				culture = nurcestiran
				size = 114000
			}
			create_pop = {
				culture = nurcestiran
				religion = regent_court
				size = 136000
			}
			create_pop = {
				culture = fungrum
				religion = regent_court
				size = 18000
			}
			create_pop = {
				culture = tinker_gnome
				religion = the_thought
				size = 23000
			}			
		}
	}
	s:STATE_HARAZ_ORLDHUM = {
		region_state:D06 = {
			create_pop = {
				culture = kuxheztar_kobold
				size = 3344000
			}
			create_pop = {
				culture = kuxhekrar_orc
				size = 186000
			}
			create_pop = {
				culture = kuxhekrar_orc
				religion = corinite
				size = 54000
			}
			create_pop = {
				culture = kuxhekrar_orc
				religion = old_dookan
				size = 78000
			}
			create_pop = {
				culture = cave_goblin
				religion = nimrithan
				size = 53000
			}		
			create_pop = {
				culture = cave_goblin
				religion = goblinic_shamanism
				size = 47000
			}
			create_pop = {
				culture = rustroad_goblin
				religion = nimrithan
				size = 26000
			}		
			create_pop = {
				culture = rustroad_goblin
				religion = goblinic_shamanism
				size = 33000
			}
			create_pop = {
				culture = darkscale_kobold
				size = 455000
			}		
			create_pop = {
				culture = platinum_dwarf
				religion = ancestor_worship
				size = 94000
			}
		}
	}
	s:STATE_MITHRADHUM = {
		region_state:D10 = {
			create_pop = {
				culture = rustroad_goblin
				size = 3714000
			}	
			create_pop = {
				culture = cave_goblin
				size = 878000
			}	
			create_pop = {
				culture = black_orc
				religion = old_dookan
				size = 342000
			}	
			create_pop = {
				culture = fungrum
				size = 48000
			}	
			create_pop = {
				culture = darkscale_kobold
				religion = nimrithan
				size = 374000
			}
			create_pop = {
				culture = cave_ogre
				religion = feast_of_the_gods
				size = 54000
			}
			create_pop = {
				culture = cave_ogrillion
				religion = old_dookan
				size = 5000
			}
		}
	}
	s:STATE_ER_NATVIR = {
		region_state:D10 = {
			create_pop = {
				culture = rustroad_goblin
				size = 4686000
			}	
			create_pop = {
				culture = cave_goblin
				size = 1264000
			}	
			create_pop = {
				culture = crawler_goblin
				size = 153000
			}	
			create_pop = {
				culture = black_orc
				religion = old_dookan
				size = 120000
			}	
			create_pop = {
				culture = black_orc
				religion = corinite
				size = 32000
			}	
			create_pop = {
				culture = fungrum
				size = 47000
			}	
		}
	}
	s:STATE_VERKAL_KOZENAD = {
		region_state:D10 = {
			create_pop = {
				culture = rustroad_goblin
				size = 1246000
			}	
			create_pop = {
				culture = cave_goblin
				size = 1094000
			}	
			create_pop = {
				culture = crawler_goblin
				size = 422000
			}	
			create_pop = {
				culture = black_orc
				religion = old_dookan
				size = 62000
			}	
			create_pop = {
				culture = black_orc
				religion = corinite
				size = 10000
			}	
		}
	}
	s:STATE_HUL_JORKAD = {
		region_state:D12 = {
			create_pop = {
				culture = lead_dwarf
				size = 960000
			}	
			create_pop = {
				culture = lead_dwarf
				religion = ancestor_worship
				size = 388000
			}
		}
	}
	s:STATE_GOR_BURAD = {
		region_state:D13 = {
			create_pop = {
				culture = basalt_dwarf
				size = 848000
			}	
			create_pop = {
				culture = basalt_dwarf
				religion = dwarven_pantheon
				size = 231000
			}	
		}
	}
	s:STATE_OVDAL_LODHUM = {
		region_state:D14 = {
			create_pop = {
				culture = garnet_dwarf
				size = 1179000
			}	
			create_pop = {
				culture = garnet_dwarf
				religion = ancestor_worship
				size = 625000
			}	
			create_pop = {
				culture = flint_dwarf
				size = 239000
			}	
			create_pop = {
				culture = flint_dwarf
				religion = ancestor_worship
				size = 461000
			}	
		}
	}
	s:STATE_VERKAL_SKOMDIHR = {
		region_state:D15 = {
			create_pop = {
				culture = obsidian_dwarf
				size = 2630000
			}	
			create_pop = {
				culture = flint_dwarf
				religion = runefather_worship
				size = 57000
			}	
			create_pop = {
				culture = flint_dwarf
				religion = dwarven_pantheon
				size = 312000
			}	
			create_pop = {
				culture = cave_minotaur
				religion = goblinic_shamanism
				size = 379000
			}
		}
	}
	s:STATE_ARG_ORDSTUN = {
		region_state:D18 = {
			create_pop = {
				culture = diamond_dwarf
				size = 2395000
			}	
			create_pop = {
				culture = diamond_dwarf
				religion = ancestor_worship
				size = 83000
			}	
			create_pop = {
				culture = marble_dwarf
				religion = dwarven_pantheon
				size = 123000
			}						
			create_pop = {
				culture = flint_dwarf
				size = 734000
			}
			create_pop = {
				culture = copper_dwarf
				religion = dwarven_pantheon
				size = 64000
			}
		}
	}
	s:STATE_SHAZSTUNDIHR = {
		region_state:F14 = {
			create_pop = {
				culture = marble_dwarf
				religion = ancestor_worship
				size = 881000
			}	
			create_pop = {
				culture = marble_dwarf
				religion = dwarven_pantheon
				size = 188000
			}		
			create_pop = {
				culture = bahari_goblin
				religion = ravelian
				size = 916000
			}	
			create_pop = {
				culture = bahari
				religion = new_sun_cult
				size = 352000
			}	
			create_pop = {
				culture = ruby_dwarf
				religion = dwarven_pantheon
				size = 31000
			}		
			create_pop = {
				culture = copper_dwarf
				religion = ancestor_worship
				size = 17000
			}		
			create_pop = {
				culture = straggler_goblin
				religion = ravelian
				size = 164000
			}	
			create_pop = {
				culture = straggler_goblin
				religion = goblinic_shamanism
				size = 116000
			}	
		}
	}
	s:STATE_ORLGHELOVAR = {
		region_state:D20 = {
			create_pop = {
				culture = cobalt_dwarf
				size = 1061000
			}	
			create_pop = {
				culture = cobalt_dwarf
				religion = dwarven_pantheon
				size = 279000
			}
			create_pop = {
				culture = fungrum
				religion = ancestor_worship
				size = 24000
			}		
			create_pop = {
				culture = copper_dwarf
				size = 86000
			}	
		}
	}
	s:STATE_GOR_VAZUMBROG = {
		region_state:D21 = {
			create_pop = {
				culture = drakonshani_orc
				size = 1856000
			}	
			create_pop = {
				culture = black_orc
				size = 256000
			}	
			create_pop = {
				culture = deep_goblin
				religion = goblinic_shamanism
				size = 312000
			}
			create_pop = {
				culture = deep_goblin
				religion = old_dookan
				size = 174000
			}	
			create_pop = {
				culture = cave_ogre
				religion = old_dookan
				size = 102000
			}
			create_pop = {
				culture = cave_ogre
				religion = feast_of_the_gods
				size = 52000
			}	
			create_pop = {
				culture = cave_ogrillion
				religion = old_dookan
				size = 121000
			}
		}
	}
	s:STATE_SEGHDIHR = {
		region_state:D24 = {
			create_pop = {
				culture = citrine_dwarf
				size = 1998000
			}
			create_pop = {
				culture = citrine_dwarf
				religion = dwarven_pantheon
				size = 397000
			}
			create_pop = {
				culture = topaz_dwarf
				size = 169000
			}
			create_pop = {
				culture = topaz_dwarf
				religion = dwarven_pantheon
				size = 82000
			}
			create_pop = {
				culture = titanium_dwarf
				religion = dwarven_pantheon
				size = 458000
			}
			create_pop = {
				culture = pyrite_dwarf
				size = 82000
			}
			create_pop = {
				culture = surani
				religion = the_jadd
				size = 136000
			}
		}
	}
	s:STATE_HEHODOVAR = {
		region_state:D24 = { 
			create_pop = {
				culture = pyrite_dwarf
				size = 663000
			}
			create_pop = {
				culture = pyrite_dwarf
				religion = dwarven_pantheon
				size = 78000
			}
			create_pop = {
				culture = citrine_dwarf
				size = 558000
			}
			create_pop = {
				culture = citrine_dwarf
				religion = dwarven_pantheon
				size = 257000
			}
			create_pop = {
				culture = titanium_dwarf
				religion = dwarven_pantheon
				size = 324000
			}
		}
	}
	s:STATE_VERKAL_GULAN = {
		region_state:D25 = {
			create_pop = {
				culture = gold_dwarf
				size = 2594000
			}
			create_pop = {
				culture = gold_dwarf
				religion = ancestor_worship
				size = 236000
			}
			create_pop = {
				culture = topaz_dwarf
				religion = the_jadd
				size = 463000
			}
			create_pop = {
				culture = topaz_dwarf
				religion = ancestor_worship
				size = 232000
			}
			create_pop = {
				culture = pyrite_dwarf
				religion = the_jadd
				size = 78000
			}
			create_pop = {
				culture = pyrite_dwarf
				religion = ancestor_worship
				size = 36000
			}
			create_pop = {
				culture = deep_goblin
				religion = the_jadd
				size = 292700
			}
			create_pop = {
				culture = goldtooth_goblin
				religion = the_jadd
				size = 73000
			}
			create_pop = {
				culture = trolltamer_goblin
				religion = the_jadd
				size = 66000
			}
			create_pop = {
				culture = surani
				size = 37000
			}
		}
	}
	s:STATE_GOR_OZUMBROG = {
		region_state:D26 = {
			create_pop = {
				culture = undergrowth_goblin
				size = 1336000
			}
			create_pop = {
				culture = goldtooth_goblin
				size = 434000
			}
			create_pop = {
				culture = bugbear
				size = 138000
			}
			create_pop = {
				culture = fungrum
				size = 42000
			}
		}
	}
	s:STATE_OVDAL_KANZAD = {
		region_state:D26 = {
			create_pop = {
				culture = undergrowth_goblin
				size = 2274000
			}
			create_pop = {
				culture = amber_dwarf
				religion = ancestor_worship
				size = 1785000
			}				
			create_pop = {
				culture = amber_dwarf
				religion = dwarven_pantheon
				size = 632000
			}	
		}
	}
	s:STATE_GROZUMDIHR = {
		region_state:D26 = {
			create_pop = {
				culture = undergrowth_goblin
				size = 3360000
			}
			create_pop = {
				culture = peridot_dwarf
				religion = dwarven_pantheon
				size = 643000
			}
			create_pop = {
				culture = amethyst_dwarf
				religion = dwarven_pantheon
				size = 828000
			}
			create_pop = {
				culture = royal_harimari
				religion = high_philosophy
				size = 86000
			}
			create_pop = {
				culture = sobhagand
				religion = high_philosophy
				size = 198000
			}
		}
	}
	s:STATE_OVDAL_AZ_AN = {
		region_state:D26 = {
			create_pop = {
				culture = undergrowth_goblin
				size = 5544000
			}	
			create_pop = {
				culture = bugbear
				size = 248000
			}
		}
	}
	s:STATE_HUL_AZ_KRAKAZOL = {
		region_state:D31 = {
			create_pop = {
				culture = undergrowth_goblin
				size = 3856000
			}	
			create_pop = {
				culture = bugbear
				size = 448000
			}
			create_pop = {
				culture = serpent_hobgoblin
				religion = godlost
				size = 317000
			}
		}
	}
	s:STATE_TUWAD_DHUMANKON = {
		region_state:D33 = {
			create_pop = {
				culture = march_goblin
				religion = godlost
				size = 1761000
			}	
			create_pop = {
				culture = march_goblin
				religion = goblinic_shamanism
				size = 209000
			}
			create_pop = {
				culture = fungrum
				religion = godlost
				size = 34000
			}		
			create_pop = {
				culture = fungrum
				religion = goblinic_shamanism
				size = 22000
			}		
			create_pop = {
				culture = serpent_hobgoblin
				religion = godlost
				size = 121000
			}	
			create_pop = {
				culture = undergrowth_goblin
				religion = godlost
				size = 161000
			}			
			create_pop = {
				culture = undergrowth_goblin
				religion = goblinic_shamanism
				size = 477000
			}	
			create_pop = {
				culture = granite_dwarf
				religion = dwarven_pantheon
				size = 131000
			}				
		}
	}
	s:STATE_GRONSTUNAD = {
		region_state:D33 = {
			create_pop = {
				culture = march_goblin
				religion = godlost
				size = 2463000
			}	
			create_pop = {
				culture = march_goblin
				religion = goblinic_shamanism
				size = 248000
			}
			create_pop = {
				culture = fungrum
				religion = godlost
				size = 83000
			}		
			create_pop = {
				culture = fungrum
				religion = goblinic_shamanism
				size = 28000
			}		
			create_pop = {
				culture = serpent_hobgoblin
				religion = godlost
				size = 157000
			}	
			create_pop = {
				culture = undergrowth_goblin
				religion = godlost
				size = 217000
			}	
			create_pop = {
				culture = undergrowth_goblin
				religion = goblinic_shamanism
				size = 344000
			}	
			create_pop = {
				culture = granite_dwarf
				religion = dwarven_pantheon
				size = 259000
			}				
		}
	}
	s:STATE_VURDRIZ_ANDRIZ = {
		region_state:D33 = {
			create_pop = {
				culture = march_goblin
				religion = godlost
				size = 2405000
			}	
			create_pop = {
				culture = march_goblin
				religion = goblinic_shamanism
				size = 192000
			}
			create_pop = {
				culture = undergrowth_goblin
				religion = godlost
				size = 147000
			}	
			create_pop = {
				culture = undergrowth_goblin
				religion = goblinic_shamanism
				size = 46000
			}	
			create_pop = {
				culture = serpent_hobgoblin
				religion = godlost
				size = 44000
			}	
			create_pop = {
				culture = granite_dwarf
				religion = dwarven_pantheon
				size = 427000
			}	
		}
	}
	s:STATE_VERKAL_DROMAK = {
		region_state:D33 = {
			create_pop = {
				culture = march_goblin
				religion = godlost
				size = 1278000
			}	
			create_pop = {
				culture = march_goblin
				religion = goblinic_shamanism
				size = 476000
			}
			create_pop = {
				culture = horned_ogre
				religion = lefthand_path
				size = 68000
			}
			create_pop = {
				culture = undergrowth_goblin
				religion = godlost
				size = 68000
			}	
			create_pop = {
				culture = undergrowth_goblin
				religion = goblinic_shamanism
				size = 420000
			}	
			create_pop = {
				culture = granite_dwarf
				religion = dwarven_pantheon
				size = 124000
			}
		}
	}


	### Dwarovrod
	s:STATE_UPPER_DAGRINROD = {
		region_state:D03 = {
			create_pop = {
				culture = sapphire_dwarf
				size = 97000 
			}
			create_pop = {
				culture = rustroad_goblin
				religion = goblinic_shamanism
				size = 23000
			}
			create_pop = {
				culture = cave_troll
				religion = goblinic_shamanism
				size = 117000
			}
		}
		region_state:D05 = {
			create_pop = {
				culture = kronium_dwarf
				size = 9000 
			}
			create_pop = {
				culture = rustroad_goblin
				religion = goblinic_shamanism
				size = 22000
			}
			create_pop = {
				culture = cave_troll
				religion = goblinic_shamanism
				size = 76000
			}
		}
	}
	s:STATE_LOWER_DAGRINROD = {
		region_state:D05 = {
			create_pop = {
				culture = kronium_dwarf
				size = 65000 
			}
			create_pop = {
				culture = rustroad_goblin
				religion = goblinic_shamanism
				size = 136000
			}
			create_pop = {
				culture = cave_troll
				religion = goblinic_shamanism
				size = 39000
			}
		}
		region_state:D10 = {
			create_pop = {
				culture = rustroad_goblin
				size = 193000
			}
			create_pop = {
				culture = cave_goblin
				size = 62000
			}
			create_pop = {
				culture = cave_troll
				religion = goblinic_shamanism
				size = 47000
			}
		}
	}
	s:STATE_WESTROD = {
		region_state:D10 = {
			create_pop = {
				culture = rustroad_goblin
				size = 122000
			}
			create_pop = {
				culture = cave_goblin
				size = 11000
			}
			create_pop = {
				culture = black_orc
				religion = old_dookan
				size = 55000
			}
		}
		region_state:D05 = {
			create_pop = {
				culture = kronium_dwarf
				size = 8000
			}
			create_pop = {
				culture = rustroad_goblin
				religion = goblinic_shamanism
				size = 32000
			}
			create_pop = {
				culture = bugbear
				religion = goblinic_shamanism
				size = 18000
			}
		}
		region_state:D06 = {
			create_pop = {
				culture = kuxheztar_kobold
				size = 239000
			}
			create_pop = {
				culture = cave_goblin
				religion = nimrithan
				size = 26000
			}
			create_pop = {
				culture = rustroad_goblin
				religion = nimrithan
				size = 21000
			}
			create_pop = {
				culture = kuxhekrar_orc
				size = 43000
			}
			create_pop = {
				culture = platinum_dwarf
				religion = ancestor_worship
				size = 4000
			}
		}
		region_state:D08 = {
			create_pop = {
				culture = agate_dwarf
				size = 138000
			}
			create_pop = {
				culture = agate_dwarf
				religion = ancestor_worship
				size = 16000
			}
			create_pop = {
				culture = agate_dwarf
				religion = dwarven_pantheon
				size = 5000
			}
			create_pop = {
				culture = iron_dwarf
				religion = regent_court
				size = 22000
			}
			create_pop = {
				culture = silver_dwarf
				size = 20000
			}
			create_pop = {
				culture = ruby_dwarf
				religion = dwarven_pantheon
				size = 11000
			}
			create_pop = {
				culture = platinum_dwarf
				religion = ancestor_worship
				size = 18000
			}
			create_pop = {
				culture = rustroad_goblin
				religion = goblinic_shamanism
				size = 32000
			}
			create_pop = {
				culture = ettin
				religion = feast_of_the_gods
				size = 33000
			}
		}
	}
	s:STATE_THE_RAILYARD = {
		region_state:D10 = {
			create_pop = {
				culture = rustroad_goblin
				size = 669000
			}
			create_pop = {
				culture = cave_goblin
				size = 160000
			}
			create_pop = {
				culture = crawler_goblin
				size = 66000
			}
			create_pop = {
				culture = black_orc
				religion = old_dookan
				size = 36000
			}
			create_pop = {
				culture = fungrum
				size = 47000
			}
		}
	}
	s:STATE_JORKAD_JUNCTION = {
		region_state:D12 = {
			create_pop = {
				culture = lead_dwarf
				size = 65000
			}
			create_pop = {
				culture = lead_dwarf
				religion = ancestor_worship
				size = 43000
			}
			create_pop = {
				culture = rustroad_goblin
				religion = goblinic_shamanism
				size = 110000
			}		
			create_pop = {
				culture = black_orc
				religion = old_dookan
				size = 101000
			}		
		}
		region_state:D21 = { 
			create_pop = {
				culture = drakonshani_orc
				size = 89000
			}
			create_pop = {
				culture = black_orc
				size = 47000
			}
			create_pop = {
				culture = rustroad_goblin
				religion = goblinic_shamanism
				size = 14000
			}
			create_pop = {
				culture = bugbear
				religion = goblinic_shamanism
				size = 41000
			}
		}
	}
	s:STATE_ARGROD_JUNCTION = {
		region_state:D12 = {
			create_pop = {
				culture = lead_dwarf
				size = 29000
			}
			create_pop = {
				culture = lead_dwarf
				religion = ancestor_worship
				size = 14000
			}
			create_pop = {
				culture = skinburner_goblin
				religion = goblinic_shamanism
				size = 32000
			}
			create_pop = {
				culture = darkscale_kobold
				religion = nimrithan
				size = 92000
			}
		}
		region_state:D13 = {
			create_pop = {
				culture = basalt_dwarf
				size = 53000
			}
			create_pop = {
				culture = basalt_dwarf
				religion = dwarven_pantheon
				size = 22000
			}
			create_pop = {
				culture = skinburner_goblin
				religion = goblinic_shamanism
				size = 57000
			}
			create_pop = {
				culture = darkscale_kobold
				religion = nimrithan
				size = 87000
			}
		}
		region_state:D14 = {
			create_pop = {
				culture = garnet_dwarf
				size = 28000
			}
			create_pop = {
				culture = straggler_goblin
				religion = goblinic_shamanism
				size = 34000
			}
		}
	}
	s:STATE_ARGROD = {
		region_state:D14 = {
			create_pop = {
				culture = garnet_dwarf
				size = 39000
			}
			create_pop = {
				culture = garnet_dwarf
				religion = ancestor_worship
				size = 15000
			}			
			create_pop = {
				culture = flint_dwarf
				size = 37000
			}
			create_pop = {
				culture = flint_dwarf
				religion = ancestor_worship
				size = 44000
			}			
			create_pop = {
				culture = straggler_goblin
				religion = goblinic_shamanism
				size = 39000
			}
		}
		region_state:D15 = {
			create_pop = {
				culture = obsidian_dwarf
				size = 62000
			}
			create_pop = {
				culture = flint_dwarf
				religion = dwarven_pantheon
				size = 9000
			}		
			create_pop = {
				culture = flint_dwarf
				religion = ancestor_worship
				size = 7000
			}			
			create_pop = {
				culture = straggler_goblin
				religion = goblinic_shamanism
				size = 28000
			}			
			create_pop = {
				culture = black_orc
				religion = old_dookan
				size = 16000
			}
		}
		region_state:D18 = {
			create_pop = {
				culture = diamond_dwarf
				size = 122000
			}
			create_pop = {
				culture = diamond_dwarf
				religion = ancestor_worship
				size = 22000
			}		
			create_pop = {
				culture = flint_dwarf
				size = 33000
			}
			create_pop = {
				culture = straggler_goblin
				religion = goblinic_shamanism
				size = 32000
			}			
		}
	}
	s:STATE_ARGROD_TERMINUS = {
		region_state:D18 = {
			create_pop = {
				culture = diamond_dwarf
				size = 377000
			}
			create_pop = {
				culture = diamond_dwarf
				religion = ancestor_worship
				size = 23000
			}	
			create_pop = {
				culture = flint_dwarf
				size = 22000
			}
			create_pop = {
				culture = blooded_orc
				religion = old_dookan
				size = 192000
			}
			create_pop = {
				culture = quaggoth
				religion = goblinic_shamanism
				size = 74000
			}
		}
		region_state:D20 = {
			create_pop = {
				culture = cobalt_dwarf
				size = 11000
			}
			create_pop = {
				culture = cobalt_dwarf
				religion = dwarven_pantheon
				size = 3000
			}	
			create_pop = {
				culture = straggler_goblin
				religion = goblinic_shamanism
				size = 12000
			}	
			create_pop = {
				culture = blooded_orc
				religion = old_dookan
				size = 19000
			}	
		}
	}
	s:STATE_VAZUMROD = {
		region_state:D21 = { 
			create_pop = {
				culture = drakonshani_orc
				size = 210000
			}
			create_pop = {
				culture = deep_goblin
				religion = old_dookan
				size = 279000
			}
			create_pop = {
				culture = deep_goblin
				religion = goblinic_shamanism
				size = 188000
			}	
			create_pop = {
				culture = cave_troll
				religion = goblinic_shamanism
				size = 56000
			}
		}
	}
	s:STATE_SEGHROD = {
		region_state:D24 = {
			create_pop = {
				culture = citrine_dwarf
				size = 165000
			}
			create_pop = {
				culture = citrine_dwarf
				religion = dwarven_pantheon
				size = 29000
			}	
			create_pop = {
				culture = titanium_dwarf
				size = 37000
			}
			create_pop = {
				culture = deep_goblin
				religion = goblinic_shamanism
				size = 368000
			}	
			create_pop = {
				culture = black_orc
				religion = old_dookan
				size = 58000
			}	
			create_pop = {
				culture = pyrite_dwarf
				size = 27000
			}
		}
		region_state:D25 = {
			create_pop = {
				culture = gold_dwarf
				size = 76000
			}
			create_pop = {
				culture = gold_dwarf
				religion = ancestor_worship
				size = 18000
			}
			create_pop = {
				culture = deep_goblin
				religion = the_jadd
				size = 275000
			}
			create_pop = {
				culture = goldtooth_goblin
				religion = goblinic_shamanism
				size = 41000
			}
			create_pop = {
				culture = topaz_dwarf
				religion = the_jadd
				size = 20000
			}
		}
	}
	s:STATE_OZUMROD = {
		region_state:D25 = {
			create_pop = {
				culture = gold_dwarf
				size = 88000
			}
			create_pop = {
				culture = gold_dwarf
				religion = ancestor_worship
				size = 22000
			}
			create_pop = {
				culture = topaz_dwarf
				religion = the_jadd
				size = 15000
			}
			create_pop = {
				culture = topaz_dwarf
				religion = ancestor_worship
				size = 8000
			}
			create_pop = {
				culture = black_orc
				religion = old_dookan
				size = 34000
			}
			create_pop = {
				culture = goldtooth_goblin
				religion = goblinic_shamanism
				size = 78000
			}
		}
		region_state:D26 = {
			create_pop = {
				culture = undergrowth_goblin
				size = 86000
			}
			create_pop = {
				culture = goldtooth_goblin
				size = 44000
			}
			create_pop = {
				culture = quaggoth
				size = 34000
			}
		}
	}
	s:STATE_COPPER_ROAD = {
		region_state:D26 = {
			create_pop = {
				culture = undergrowth_goblin
				size = 455000
			}
			create_pop = {
				culture = amber_dwarf
				religion = ancestor_worship
				size = 48000
			}
		}
	}
	s:STATE_HALNROD = {
		region_state:D26 = {
			create_pop = {
				culture = undergrowth_goblin
				size = 631000
			}
			create_pop = {
				culture = amber_dwarf
				religion = ancestor_worship
				size = 32000
			}
		}
		region_state:D31 = {
			create_pop = {
				culture = undergrowth_goblin
				size = 322000
			}
			create_pop = {
				culture = bugbear
				size = 34000
			}
		}
	}
	s:STATE_GROZUMROD = {
		region_state:D26 = {
			create_pop = {
				culture = undergrowth_goblin
				size = 304000
			}
			create_pop = {
				culture = peridot_dwarf
				religion = dwarven_pantheon
				size = 40000
			}
			create_pop = {
				culture = amethyst_dwarf
				religion = ancestor_worship
				size = 37000
			}
		}
	}
	s:STATE_DRUNKEN_ROAD = {
		region_state:D31 = {
			create_pop = {
				culture = undergrowth_goblin
				size = 406000
			}
			create_pop = {
				culture = serpent_hobgoblin
				religion = godlost
				size = 57000
			}
		}
		region_state:D33 = {
			create_pop = {
				culture = march_goblin
				religion = godlost
				size = 35000
			}
			create_pop = {
				culture = march_goblin
				religion = goblinic_shamanism
				size = 22000
			}
			create_pop = {
				culture = undergrowth_goblin
				religion = goblinic_shamanism
				size = 89000
			}
		}
	}
	s:STATE_WESTERN_JADEROD = {
		region_state:D33 = {
			create_pop = {
				culture = march_goblin
				religion = godlost
				size = 205000
			}
			create_pop = {
				culture = march_goblin
				religion = goblinic_shamanism
				size = 95000
			}
			create_pop = {
				culture = undergrowth_goblin
				religion = godlost
				size = 17000
			}
			create_pop = {
				culture = undergrowth_goblin
				religion = goblinic_shamanism
				size = 137000
			}
			create_pop = {
				culture = cave_troll
				religion = goblinic_shamanism
				size = 44000
			}
		}
	}
	s:STATE_EASTERN_JADEROD = {
		region_state:D33 = {
			create_pop = {
				culture = march_goblin
				religion = godlost
				size = 218000
			}
			create_pop = {
				culture = march_goblin
				religion = goblinic_shamanism
				size = 173000
			}
			create_pop = {
				culture = undergrowth_goblin
				religion = godlost
				size = 38000
			}
			create_pop = {
				culture = undergrowth_goblin
				religion = goblinic_shamanism
				size = 74000
			}
			create_pop = {
				culture = bugbear
				religion = goblinic_shamanism
				size = 24000
			}
		}
	}
	### Caverns
	s:STATE_DEAD_END_MINES = {
		region_state:D02 = {
			create_pop = {
				culture = quartz_dwarf
				size = 130000 
			}
			create_pop = {
				culture = coldcave_goblin
				religion = goblinic_shamanism
				size = 1218000 
			}
			create_pop = {
				culture = cave_troll
				religion = goblinic_shamanism
				size = 89000
			}
		}
	}
	s:STATE_GIANTS_ANVIL = {
		region_state:D02 = {
			create_pop = {
				culture = quartz_dwarf
				size = 154000 
			}
			create_pop = {
				culture = coldcave_goblin
				religion = goblinic_shamanism
				size = 1116000 
			}
			create_pop = {
				culture = cave_troll
				religion = goblinic_shamanism
				size = 143000
			}
		}
	}
	s:STATE_LIMONITE_CAVERNS = {
		region_state:D03 = {
			create_pop = {
				culture = sapphire_dwarf
				size = 41000
			}
			create_pop = {
				culture = cave_goblin
				religion = goblinic_shamanism
				size = 481000
			}
			create_pop = {
				culture = darkscale_kobold
				religion = nimrithan
				size = 102000
			}
		}
		region_state:D05 = {
			create_pop = {
				culture = kronium_dwarf
				size = 28000
			}
			create_pop = {
				culture = cave_goblin
				religion = goblinic_shamanism
				size = 207000
			}
			create_pop = {
				culture = quaggoth
				religion = goblinic_shamanism
				size = 54000
			}
			create_pop = {
				culture = darkscale_kobold
				religion = nimrithan
				size = 22000
			}		
		}
		region_state:D10 = {
			create_pop = {
				culture = rustroad_goblin
				size = 21000
			}
			create_pop = {
				culture = cave_goblin
				size = 876000
			}
			create_pop = {
				culture = cave_troll
				size = 26000
			}			
		}
	}
	s:STATE_TRUEPATH_CAVERNS = {
		region_state:D10 = {
			create_pop = {
				culture = rustroad_goblin
				size = 18000
			}
			create_pop = {
				culture = cave_goblin
				size = 744000
			}
			create_pop = {
				culture = fungrum
				size = 43000
			}
			create_pop = {
				culture = darkscale_kobold
				religion = nimrithan
				size = 21000
			}
			create_pop = {
				culture = darkscale_kobold
				religion = goblinic_shamanism
				size = 92000
			}
			create_pop = {
				culture = black_orc
				religion = old_dookan
				size = 15000
			}
		}
		region_state:D38 = {
			create_pop = {
				culture = rustroad_goblin
				size = 27000
			}
			create_pop = {
				culture = cave_goblin
				size = 1184000
			}
			create_pop = {
				culture = bugbear
				size = 42000
			}
			create_pop = {
				culture = ettin
				religion = feast_of_the_gods
				size = 24000
			}
		}
	}
	s:STATE_CRIMSON_CAVERNS = {
		region_state:D06 = {
			create_pop = {
				culture = kuxheztar_kobold
				size = 1982000
			}
			create_pop = {
				culture = cave_goblin
				religion = nimrithan
				size = 23000
			}
			create_pop = {
				culture = cave_goblin
				religion = goblinic_shamanism
				size = 77000
			}
			create_pop = {
				culture = kuxhekrar_orc
				size = 27000
			}
			create_pop = {
				culture = kuxhekrar_orc
				religion = old_dookan
				size = 18000
			}
		}
	}
	s:STATE_HARAZA_DEPTHS = {
		region_state:D06 = {
			create_pop = {
				culture = kuxheztar_kobold
				size = 1712000
			}
			create_pop = {
				culture = cave_goblin
				religion = nimrithan
				size = 31000
			}
			create_pop = {
				culture = cave_goblin
				religion = goblinic_shamanism
				size = 103000
			}
			create_pop = {
				culture = platinum_dwarf
				religion = ancestor_worship
				size = 24000
			}
		}
	}
	s:STATE_KHUGSCAVE = {
		region_state:D08 = {
			create_pop = {
				culture = agate_dwarf
				size = 230000
			}
			create_pop = {
				culture = agate_dwarf
				religion = ancestor_worship
				size = 50000
			}
			create_pop = {
				culture = iron_dwarf
				religion = regent_court
				size = 43000
			}
			create_pop = {
				culture = iron_dwarf
				religion = ancestor_worship
				size = 16000
			}
			create_pop = {
				culture = silver_dwarf
				size = 35000
			}
			create_pop = {
				culture = ruby_dwarf
				religion = dwarven_pantheon
				size = 18000
			}
			create_pop = {
				culture = platinum_dwarf
				religion = ancestor_worship
				size = 57000
			}
			create_pop = {
				culture = cave_goblin
				religion = goblinic_shamanism
				size = 1037000
			}
		}
	}
	s:STATE_ASRA_DEPTHS = {
		region_state:D08 = {
			create_pop = {
				culture = agate_dwarf
				size = 272000
			}
			create_pop = {
				culture = agate_dwarf
				religion = ancestor_worship
				size = 59000
			}
			create_pop = {
				culture = iron_dwarf
				religion = regent_court
				size = 23000
			}
			create_pop = {
				culture = silver_dwarf
				size = 34000
			}			
			create_pop = {
				culture = silver_dwarf
				religion = ancestor_worship
				size = 18000
			}
			create_pop = {
				culture = platinum_dwarf
				religion = regent_court
				size = 30000
			}
			create_pop = {
				culture = platinum_dwarf
				religion = ancestor_worship
				size = 62000
			}
			create_pop = {
				culture = cave_goblin
				religion = goblinic_shamanism
				size = 1333000
			}
		}
		region_state:D37 = {
			create_pop = {
				culture = kuxhekrar_orc
				size = 265000
			}
			create_pop = {
				culture = kuxhekrar_orc
				religion = corinite
				size = 41000
			}
			create_pop = {
				culture = cave_goblin
				religion = nimrithan
				size = 67000
			}
			create_pop = {
				culture = cave_goblin
				religion = goblinic_shamanism
				size = 48000
			}
		}
	}
	s:STATE_CHAINLINK_MINES = {
		region_state:D37 = {
			create_pop = {
				culture = kuxhekrar_orc
				size = 930000
			}
			create_pop = {
				culture = kuxhekrar_orc
				religion = corinite
				size = 104000
			}
			create_pop = {
				culture = kuxhekrar_orc
				religion = old_dookan
				size = 103000
			}
			create_pop = {
				culture = cave_goblin
				religion = nimrithan
				size = 39000
			}
			create_pop = {
				culture = cave_goblin
				religion = goblinic_shamanism
				size = 117000
			}
		}
		region_state:D39 = {
			create_pop = {
				culture = cave_goblin
				size = 1274000
			}
			create_pop = {
				culture = quaggoth
				size = 157000
			}
			create_pop = {
				culture = ettin
				religion = feast_of_the_gods
				size = 68000
			}
			create_pop = {
				culture = cave_troll
				religion = goblinic_shamanism
				size = 37000
			}
		}
	}
	s:STATE_SKULKERS_LAIR = {
		region_state:D10 = {
			create_pop = {
				culture = rustroad_goblin
				size = 22000
			}
			create_pop = {
				culture = cave_goblin
				size = 1314000
			}
			create_pop = {
				culture = cave_troll
				size = 56000
			}			
		}
	}
	s:STATE_DEAD_CAVERNS = {
		region_state:D12 = {
			create_pop = {
				culture = lead_dwarf
				size = 114000
			}
			create_pop = {
				culture = lead_dwarf
				religion = ancestor_worship
				size = 29000
			}
			create_pop = {
				culture = cave_goblin
				religion = goblinic_shamanism
				size = 22000
			}
			create_pop = {
				culture = skull_orc
				religion = old_dookan
				size = 129000
			}
		}
		region_state:D41 = {
			create_pop = {
				culture = cave_goblin
				size = 292000
			}
			create_pop = {
				culture = skull_orc
				religion = old_dookan
				size = 162000
			}
		}
		region_state:D40 = {
			create_pop = {
				culture = cave_goblin
				size = 337000
			}
			create_pop = {
				culture = skull_orc
				religion = old_dookan
				size = 95000
			}
			create_pop = {
				culture = cave_ogre
				religion = feast_of_the_gods
				size = 32000
			}
			create_pop = {
				culture = cave_ogrillion
				religion = feast_of_the_gods
				size = 17000
			}
		}
		region_state:D42 = {
			create_pop = {
				culture = cave_goblin
				size = 384000
			}
			create_pop = {
				culture = skull_orc
				religion = old_dookan
				size = 102000
			}
		}
	}
	s:STATE_SKITTERING_CAVERNS = {
		region_state:D43 = {
			create_pop = {
				culture = crawler_goblin
				size = 574000
			}
		}
		region_state:D10 = {
			create_pop = {
				culture = cave_goblin
				size = 70000
			}
			create_pop = {
				culture = crawler_goblin
				size = 292000
			}
			create_pop = {
				culture = bugbear
				size = 37000
			}
		}
	}
	s:STATE_CRUMBLING_CAVERNS = {
		region_state:D45 = {
			create_pop = {
				culture = cave_goblin
				size = 532000
			}
			create_pop = {
				culture = bugbear
				size = 32000
			}
		}
		region_state:D44 = {
			create_pop = {
				culture = black_orc
				size = 527000
			}
			create_pop = {
				culture = cave_goblin
				religion = old_dookan
				size = 138000
			}
			create_pop = {
				culture = cave_ogre
				religion = feast_of_the_gods
				size = 56000
			}
			create_pop = {
				culture = cave_goblin
				religion = goblinic_shamanism
				size = 167000
			}
		}
	}
	s:STATE_SCALDING_PITS = {
		region_state:D14 = {
			create_pop = {
				culture = garnet_dwarf
				size = 190000
			}
			create_pop = {
				culture = garnet_dwarf
				religion = ancestor_worship
				size = 105000
			}
			create_pop = {
				culture = skinburner_goblin
				size = 54000
			}
			create_pop = {
				culture = darkscale_kobold
				size = 507000
			}
		}
		region_state:D46 = {
			create_pop = {
				culture = darkscale_kobold
				size = 1071000
			}
			create_pop = {
				culture = skinburner_goblin
				religion = goblinic_shamanism
				size = 92000
			}
			create_pop = {
				culture = norker_goblin
				religion = goblinic_shamanism
				size = 28000
			}
			create_pop = {
				culture = cave_minotaur
				religion = goblinic_shamanism
				size = 42000
			}
		}
		region_state:D13 = {
			create_pop = {
				culture = basalt_dwarf
				size = 43000
			}
			create_pop = {
				culture = darkscale_kobold
				religion = nimrithan
				size = 345000
			}
			create_pop = {
				culture = skinburner_goblin
				religion = goblinic_shamanism
				size = 198000
			}
			create_pop = {
				culture = norker_goblin
				religion = goblinic_shamanism
				size = 43000
			}
		}
	}
	s:STATE_FORGOTTEN_DEPTHS = {
		region_state:D47 = {
			create_pop = {
				culture = skinburner_goblin
				size = 735000
			}
			create_pop = {
				culture = norker_goblin
				size = 114000
			}
			create_pop = {
				culture = bugbear
				size = 107000
			}
			create_pop = {
				culture = cave_ogre
				religion = feast_of_the_gods
				size = 27000
			}
		}
	}
	s:STATE_ORCSFALL = {
		region_state:D48 = {
			create_pop = {
				culture = black_orc
				size = 1026000
			}
			create_pop = {
				culture = skinburner_goblin
				religion = old_dookan
				size = 27000
			}
			create_pop = {
				culture = skinburner_goblin
				religion = goblinic_shamanism
				size = 214000
			}
			create_pop = {
				culture = norker_goblin
				religion = goblinic_shamanism
				size = 42000
			}
		}
		region_state:D15 = {
			create_pop = {
				culture = obsidian_dwarf
				size = 125000
			}
			create_pop = {
				culture = flint_dwarf
				religion = dwarven_pantheon
				size = 13000
			}
			create_pop = {
				culture = black_orc
				religion = old_dookan
				size = 115000
			}	
		}
	}
	s:STATE_WINDING_CAVERNS = {
		region_state:D49 = {
			create_pop = {
				culture = straggler_goblin
				size = 914000
			}
			create_pop = {
				culture = quaggoth
				size = 67000
			}
			create_pop = {
				culture = cave_minotaur
				size = 38000
			}
			create_pop = {
				culture = cave_troll
				size = 38000
			}
		}
		region_state:D50 = {
			create_pop = {
				culture = straggler_goblin
				size = 702000
			}
			create_pop = {
				culture = quaggoth
				size = 42000
			}
			create_pop = {
				culture = cave_minotaur
				size = 41000
			}
			create_pop = {
				culture = cave_troll
				size = 61000
			}
		}
		region_state:D14 = {
			create_pop = {
				culture = garnet_dwarf
				size = 41000
			}
			create_pop = {
				culture = quaggoth
				religion = goblinic_shamanism
				size = 31000
			}
			create_pop = {
				culture = flint_dwarf
				size = 16000
			}
			create_pop = {
				culture = straggler_goblin
				size = 94000
			}
		}
	}
	s:STATE_SCREAMING_CAVERNS = {
		region_state:D20 = {
			create_pop = {
				culture = cobalt_dwarf
				size = 125000
			}
			create_pop = {
				culture = cobalt_dwarf
				religion = dwarven_pantheon
				size = 18000
			}
			create_pop = {
				culture = blooded_orc
				religion = old_dookan
				size = 343000
			}
			create_pop = {
				culture = straggler_goblin
				religion = goblinic_shamanism
				size = 41000
			}
		}
		region_state:D51 = {
			create_pop = {
				culture = blooded_orc
				size = 634000
			}
			create_pop = {
				culture = straggler_goblin
				religion = old_dookan
				size = 144000
			}
			create_pop = {
				culture = straggler_goblin
				religion = goblinic_shamanism
				size = 255000
			}
		}
	}
	s:STATE_DIAMOND_QUARRY = {
		region_state:D18 = {
			create_pop = {
				culture = diamond_dwarf
				size = 642000
			}
			create_pop = {
				culture = diamond_dwarf
				religion = ancestor_worship
				size = 158000
			}
			create_pop = {
				culture = flint_dwarf
				size = 434000
			}
			create_pop = {
				culture = cave_minotaur
				religion = goblinic_shamanism
				size = 61000
			}
		}
	}
	s:STATE_DRAKEDENS = {
		region_state:D21 = {
			create_pop = {
				culture = drakonshani_orc
				size = 943000
			}
			create_pop = {
				culture = deep_goblin
				religion = old_dookan
				size = 439000
			}
			create_pop = {
				culture = deep_goblin
				religion = goblinic_shamanism
				size = 978000
			}
			create_pop = {
				culture = deep_goblin
				religion = goblinic_shamanism
				size = 48000
			}
		}
	}

	s:STATE_FORSAKEN_DEPTHS = {
		region_state:D21 = {
			create_pop = {
				culture = drakonshani_orc
				size = 262000
			}
			create_pop = {
				culture = deep_goblin
				religion = old_dookan
				size = 67000
			}
			create_pop = {
				culture = deep_goblin
				religion = goblinic_shamanism
				size = 189000
			}
			create_pop = {
				culture = black_orc
				size = 31000
			}
			create_pop = {
				culture = cave_troll
				religion = goblinic_shamanism
				size = 36000
			}
		}
		region_state:D55 = {
			create_pop = {
				culture = black_orc
				size = 390000
			}
			create_pop = {
				culture = cave_goblin
				religion = goblinic_shamanism
				size = 303000
			}
			create_pop = {
				culture = cave_ogre
				religion = feast_of_the_gods
				size = 54000
			}
			create_pop = {
				culture = cave_ogre
				religion = old_dookan
				size = 31000
			}
			create_pop = {
				culture = cave_ogrillion
				religion = old_dookan
				size = 77000
			}
		}
	}
	s:STATE_CITRINE_MINES = {
		region_state:D53 = {
			create_pop = {
				culture = black_orc
				size = 204000
			}
			create_pop = {
				culture = cave_goblin
				religion = goblinic_shamanism
				size = 123000
			}
			create_pop = {
				culture = fungrum
				size = 104000
			}
			create_pop = {
				culture = quaggoth
				religion = goblinic_shamanism
				size = 57000
			}
		}
		region_state:D54 = {
			create_pop = {
				culture = black_orc
				religion = old_dookan
				size = 58000
			}
			create_pop = {
				culture = cave_goblin
				religion = goblinic_shamanism
				size = 383000
			}
			create_pop = {
				culture = cave_troll
				religion = goblinic_shamanism
				size = 94000
			}
		}
		region_state:D24 = {
			create_pop = {
				culture = citrine_dwarf
				size = 82000
			}
			create_pop = {
				culture = cave_goblin
				religion = goblinic_shamanism
				size = 54000
			}
			create_pop = {
				culture = cave_troll
				religion = goblinic_shamanism
				size = 22000
			}
		}
	}
	s:STATE_GREATCAVERNS = {
		region_state:D25 = {
			create_pop = {
				culture = gold_dwarf
				size = 374000
			}
			create_pop = {
				culture = gold_dwarf
				religion = ancestor_worship
				size = 32000
			}
			create_pop = {
				culture = trolltamer_goblin
				religion = the_jadd
				size = 314000
			}
			create_pop = {
				culture = trolltamer_goblin
				religion = goblinic_shamanism
				size = 179000
			}
			create_pop = {
				culture = cave_troll
				religion = the_jadd
				size = 185000
			}
			create_pop = {
				culture = cave_troll
				religion = goblinic_shamanism
				size = 269000
			}
		}
		region_state:D52 = {
			create_pop = {
				culture = trolltamer_goblin
				size = 646000
			}
			create_pop = {
				culture = cave_troll
				size = 107000
			}
			create_pop = {
				culture = bugbear
				size = 73000
			}
		}
		region_state:D24 = {
			create_pop = {
				culture = citrine_dwarf
				size = 35000
			}
			create_pop = {
				culture = trolltamer_goblin
				religion = goblinic_shamanism
				size = 116000
			}
			create_pop = {
				culture = bugbear
				religion = goblinic_shamanism
				size = 53000
			}
		}
	}
	s:STATE_FOOLS_PASSAGE = {
		region_state:D56 = {
			create_pop = {
				culture = trolltamer_goblin
				size = 437000
			}
			create_pop = {
				culture = cave_troll
				size = 1088000
			}
		}
		region_state:D21 = {
			create_pop = {
				culture = drakonshani_orc
				size = 128000
			}
			create_pop = {
				culture = cave_troll
				religion = goblinic_shamanism
				size = 22000
			}
			create_pop = {
				culture = deep_goblin
				religion = goblinic_shamanism
				size = 405000
			}
			create_pop = {
				culture = trolltamer_goblin
				religion = goblinic_shamanism
				size = 22000
			}
		}
		region_state:D24 = {
			create_pop = {
				culture = citrine_dwarf
				size = 152000
			}
			create_pop = {
				culture = citrine_dwarf
				religion = dwarven_pantheon
				size = 61000
			}
			create_pop = {
				culture = trolltamer_goblin
				religion = goblinic_shamanism
				size = 78000
			}
			create_pop = {
				culture = cave_troll
				religion = goblinic_shamanism
				size = 21000
			}			
			create_pop = {
				culture = pyrite_dwarf
				size = 32000
			}
			create_pop = {
				culture = deep_goblin
				religion = goblinic_shamanism
				size = 306000
			}
		}
	}
	s:STATE_RATHOLES = {
		region_state:D57 = {
			create_pop = {
				culture = goldtooth_goblin
				size = 1276000
			}
			create_pop = {
				culture = quaggoth
				size = 213000
			}
		}
	}
	s:STATE_ANCIENT_DEPTHS = {
		region_state:D59 = {
			create_pop = {
				culture = goldtooth_goblin
				size = 499000
			}
			create_pop = {
				culture = quaggoth
				size = 55000
			}
			create_pop = {
				culture = cave_minotaur
				size = 79000
			}		
		}
		region_state:D58 = {
			create_pop = {
				culture = goldtooth_goblin
				size = 414000
			}
			create_pop = {
				culture = quaggoth
				size = 87000
			}
			create_pop = {
				culture = cave_minotaur
				size = 43000
			}		
		}		
		region_state:D25 = {
			create_pop = {
				culture = gold_dwarf
				size = 221000
			}
			create_pop = {
				culture = goldtooth_goblin
				religion = the_jadd
				size = 142000
			}
			create_pop = {
				culture = goldtooth_goblin
				religion = goblinic_shamanism
				size = 90000
			}
			create_pop = {
				culture = cave_minotaur
				size = 38000
			}
			create_pop = {
				culture = cave_minotaur
				religion = goblinic_shamanism
				size = 62000
			}
		}
	}
	s:STATE_AMBER_MINES = {
		region_state:D26 = {
			create_pop = {
				culture = undergrowth_goblin
				size = 2892000
			}
			create_pop = {
				culture = quaggoth
				size = 89000
			}		
			create_pop = {
				culture = bugbear
				size = 47000
			}		
		}
	}
	s:STATE_EARTHSEED = {
		region_state:D26 ={
			create_pop = {
				culture = undergrowth_goblin
				size = 3428000
			}
			create_pop = {
				culture = quaggoth
				size = 128000
			}		
			create_pop = {
				culture = bugbear
				size = 88000
			}	
			create_pop = {
				culture = cave_troll
				size = 38000
			}	
		}
	}
	s:STATE_ROARING_CAVERNS = {
		region_state:D26 = {
			create_pop = {
				culture = undergrowth_goblin
				size = 712000
			}
			create_pop = {
				culture = black_orc
				size = 114000
			}
			create_pop = {
				culture = fungrum
				size = 34000
			}
		}
		region_state:D31 = {
			create_pop = {
				culture = undergrowth_goblin
				size = 1024000
			}
			create_pop = {
				culture = black_orc
				size = 106000
			}
			create_pop = {
				culture = fungrum
				size = 41000
			}
		}
	}
	s:STATE_AMETHYST_POCKET = {
		region_state:D31 = {
			create_pop = {
				culture = undergrowth_goblin
				size = 1578000
			}
			create_pop = {
				culture = cave_minotaur
				size = 49000
			}
			create_pop = {
				culture = norker_goblin
				size = 239000
			}
		}
	}
	s:STATE_ALEMINES = {
		region_state:D31 = {
			create_pop = {
				culture = undergrowth_goblin
				size = 2510000
			}
			create_pop = {
				culture = serpent_hobgoblin
				religion = godlost
				size = 164000
			}		
			create_pop = {
				culture = fungrum
				size = 44000
			}
			create_pop = {
				culture = cave_troll
				size = 104000
			}
		}
		region_state:D33 = {
			create_pop = {
				culture = undergrowth_goblin
				size = 578000
			}
			create_pop = {
				culture = serpent_hobgoblin
				religion = godlost
				size = 32000
			}		
			create_pop = {
				culture = fungrum
				size = 18000
			}
			create_pop = {
				culture = cave_troll
				size = 39000
			}
		}
	}
	s:STATE_GRANITE_SPIRES = {
		region_state:D31 = {
			create_pop = {
				culture = undergrowth_goblin
				size = 2468000
			}	
			create_pop = {
				culture = cave_troll
				size = 74000
			}	
			create_pop = {
				culture = silent_harimari
				size = 206000
			}				
		}
	}
	s:STATE_INVADERS_PATH = {
		region_state:D33 = {
			create_pop = {
				culture = march_goblin
				religion = godlost
				size = 659000
			}	
			create_pop = {
				culture = march_goblin
				religion = goblinic_shamanism
				size = 203000
			}				
			create_pop = {
				culture = serpent_hobgoblin
				religion = godlost
				size = 142000
			}	
			create_pop = {
				culture = undergrowth_goblin
				religion = godlost
				size = 229000
			}	
			create_pop = {
				culture = undergrowth_goblin
				religion = goblinic_shamanism
				size = 533000
			}				
		}
	}
	s:STATE_LUSH_CAVERNS = {
		region_state:D33 = {
			create_pop = {
				culture = march_goblin
				religion = godlost
				size = 850000
			}
			create_pop = {
				culture = fungrum
				religion = godlost
				size = 354000
			}			
			create_pop = {
				culture = fungrum
				religion = goblinic_shamanism
				size = 94000
			}
			create_pop = {
				culture = undergrowth_goblin
				religion = godlost
				size = 174000
			}	
			create_pop = {
				culture = undergrowth_goblin
				religion = goblinic_shamanism
				size = 1154000
			}
			create_pop = {
				culture = cave_troll
				size = 51000
			}
			create_pop = {
				culture = quaggoth
				size = 103000
			}
			create_pop = {
				culture = serpent_hobgoblin
				size = 84000
			}
		}
	}
	s:STATE_PUTRID_PASSAGE = {
		region_state:D33 = {
			create_pop = {
				culture = march_goblin
				religion = godlost
				size = 295000
			}	
			create_pop = {
				culture = march_goblin
				religion = goblinic_shamanism
				size = 144000
			}					
			create_pop = {
				culture = undergrowth_goblin
				religion = godlost
				size = 17000
			}	
			create_pop = {
				culture = undergrowth_goblin
				religion = goblinic_shamanism
				size = 1116000
			}
			create_pop = {
				culture = bugbear
				religion = goblinic_shamanism
				size = 129000
			}
		}
	}
	s:STATE_SUNLIT_HOLLOW = {
		region_state:D33 = {
			create_pop = {
				culture = march_goblin
				religion = godlost
				size = 246000
			}	
			create_pop = {
				culture = march_goblin
				religion = goblinic_shamanism
				size = 453000
			}					
			create_pop = {
				culture = undergrowth_goblin
				religion = godlost
				size = 158000
			}	
			create_pop = {
				culture = undergrowth_goblin
				religion = goblinic_shamanism
				size = 833000
			}
			create_pop = {
				culture = bugbear
				religion = goblinic_shamanism
				size = 21000
			}
		}
	}
	### Surface
	s:STATE_WESTERN_VALE = {
		region_state:D05 = {
			create_pop = {
				culture = kronium_dwarf
				size = 96000
			}
			create_pop = {
				culture = kronium_dwarf
				religion = dwarven_pantheon
				size = 3000
			}
			create_pop = {
				culture = mossmouth_ogre
				religion = feast_of_the_gods
				size = 186000
			}
			create_pop = {
				culture = platinum_dwarf
				size = 14000
			}
		}
		region_state:A10 = {
			create_pop = {
				culture = grombari_half_orc
				size = 327000
			}
			create_pop = {
				culture = grombari_half_orc
				religion = old_dookan
				size = 87000
			}	
			create_pop = {
				culture = grombari_orc
				size = 310000
			}
			create_pop = {
				culture = grombari_orc
				religion = old_dookan
				size = 88000
			}		
			create_pop = {
				culture = mossmouth_ogre
				size = 622000
			}
			create_pop = {
				culture = mossmouth_ogre
				religion = corinite
				size = 59000
			}	
		}
	}
	s:STATE_EASTERN_VALE = {
		region_state:D05 = {
			create_pop = {
				culture = kronium_dwarf
				size = 447000
			}
			create_pop = {
				culture = kronium_dwarf
				religion = dwarven_pantheon
				size = 131000
			}
			create_pop = {
				culture = mossmouth_ogre
				religion = feast_of_the_gods
				size = 1037000
			}
		}
	}
}